
newmtl skull_skull
Ka 0 0 0
Ns 8.16617
Ks 1 1 1
Kd 0.929412 0.862745 0.772549

newmtl skull_uteeth
Ka 0 0 0
Ns 8.16617
Ks 1 1 1
Kd 0.929412 0.662745 0.972549

newmtl skull_jaw
Ka 0 0 0
Ns 8.16617
Ks 1 1 1
Kd 0.929412 0.962745 0.572549

newmtl skull_lteeth
Ka 0 0 0
Ns 8.16617
Ks 1 1 1
Kd 0.929412 0.762745 0.672549
