
newmtl head
ka 0 0 0
kd 0 0 0
ks 0 0 0
illum 0
tr 1
map_ka Data/Texture/head.tga
map_kd Data/Texture/head.tga
map_ks Data/Texture/head.tga

newmtl symbol
ka 0 0 0
kd 0 0 0
ks 0 0 0
illum 0
tr 1
map_ka Data/Texture/symbol.tga
map_kd Data/Texture/symbol.tga
map_ks Data/Texture/symbol.tga

newmtl flower
ka 0 0 0
kd 0 0 0
ks 0 0 0
illum 0
tr 1
map_ka Data/Texture/flower.tga
map_kd Data/Texture/flower.tga
map_ks Data/Texture/flower.tga
